Análise Exploratória de Dados e Visualização - Lista 5
…
Capítulo 5

Usando pipes para sumarizar dados

Para iniciar o 5º capítulo, realizei um pequeno tratamento com a base
“gss_sm” e plotei um gráfico bem semelhante ao anterior, mas agora
utilizando informações de colunas geradas manualmente.

religiao_por_regiao = gss_sm %>% group_by(bigregion, religion) %>% summarise(total = n()) %>% mutate(percentage = (total / sum(total)))
religiao_por_regiao

## # A tibble: 24 × 4
## # Groups:   bigregion [4]
##    bigregion religion   total percentage
##    <fct>     <fct>      <int>      <dbl>
##  1 Northeast Protestant   158    0.324  
##  2 Northeast Catholic     162    0.332  
##  3 Northeast Jewish        27    0.0553 
##  4 Northeast None         112    0.230  
##  5 Northeast Other         28    0.0574 
##  6 Northeast <NA>           1    0.00205
##  7 Midwest   Protestant   325    0.468  
##  8 Midwest   Catholic     172    0.247  
##  9 Midwest   Jewish         3    0.00432
## 10 Midwest   None         157    0.226  
## # ℹ 14 more rows
…
